INFO - 2015-09-04 17:50:44 --> Config Class Initialized
INFO - 2015-09-04 17:50:44 --> Hooks Class Initialized
DEBUG - 2015-09-04 17:50:44 --> UTF-8 Support Enabled
INFO - 2015-09-04 17:50:44 --> Utf8 Class Initialized
INFO - 2015-09-04 17:50:44 --> URI Class Initialized
DEBUG - 2015-09-04 17:50:44 --> No URI present. Default controller set.
INFO - 2015-09-04 17:50:44 --> Router Class Initialized
INFO - 2015-09-04 17:50:44 --> Output Class Initialized
INFO - 2015-09-04 17:50:44 --> Security Class Initialized
DEBUG - 2015-09-04 17:50:44 --> Global POST, GET and COOKIE data sanitized
INFO - 2015-09-04 17:50:44 --> Input Class Initialized
INFO - 2015-09-04 17:50:44 --> Language Class Initialized
INFO - 2015-09-04 17:50:44 --> Loader Class Initialized
INFO - 2015-09-04 17:50:44 --> Controller Class Initialized
INFO - 2015-09-04 17:50:44 --> Helper loaded: url_helper
INFO - 2015-09-04 17:50:44 --> File loaded: /opt/lampp/htdocs/project/application/views/home.php
INFO - 2015-09-04 17:50:44 --> File loaded: /opt/lampp/htdocs/project/application/views/themes/blank.php
INFO - 2015-09-04 17:50:44 --> Final output sent to browser
DEBUG - 2015-09-04 17:50:44 --> Total execution time: 0.0120
INFO - 2015-09-04 17:50:45 --> Config Class Initialized
INFO - 2015-09-04 17:50:45 --> Hooks Class Initialized
DEBUG - 2015-09-04 17:50:45 --> UTF-8 Support Enabled
INFO - 2015-09-04 17:50:45 --> Utf8 Class Initialized
INFO - 2015-09-04 17:50:45 --> URI Class Initialized
DEBUG - 2015-09-04 17:50:45 --> No URI present. Default controller set.
INFO - 2015-09-04 17:50:45 --> Router Class Initialized
INFO - 2015-09-04 17:50:45 --> Output Class Initialized
INFO - 2015-09-04 17:50:45 --> Security Class Initialized
DEBUG - 2015-09-04 17:50:45 --> Global POST, GET and COOKIE data sanitized
INFO - 2015-09-04 17:50:45 --> Input Class Initialized
INFO - 2015-09-04 17:50:45 --> Language Class Initialized
INFO - 2015-09-04 17:50:45 --> Loader Class Initialized
INFO - 2015-09-04 17:50:45 --> Controller Class Initialized
INFO - 2015-09-04 17:50:45 --> Helper loaded: url_helper
INFO - 2015-09-04 17:50:45 --> File loaded: /opt/lampp/htdocs/project/application/views/home.php
INFO - 2015-09-04 17:50:45 --> File loaded: /opt/lampp/htdocs/project/application/views/themes/blank.php
INFO - 2015-09-04 17:50:45 --> Final output sent to browser
DEBUG - 2015-09-04 17:50:45 --> Total execution time: 0.0139
INFO - 2015-09-04 17:58:20 --> Config Class Initialized
INFO - 2015-09-04 17:58:20 --> Hooks Class Initialized
DEBUG - 2015-09-04 17:58:20 --> UTF-8 Support Enabled
INFO - 2015-09-04 17:58:20 --> Utf8 Class Initialized
INFO - 2015-09-04 17:58:20 --> URI Class Initialized
DEBUG - 2015-09-04 17:58:20 --> No URI present. Default controller set.
INFO - 2015-09-04 17:58:20 --> Router Class Initialized
INFO - 2015-09-04 17:58:20 --> Output Class Initialized
INFO - 2015-09-04 17:58:20 --> Security Class Initialized
DEBUG - 2015-09-04 17:58:20 --> Global POST, GET and COOKIE data sanitized
INFO - 2015-09-04 17:58:20 --> Input Class Initialized
INFO - 2015-09-04 17:58:20 --> Language Class Initialized
INFO - 2015-09-04 17:58:20 --> Loader Class Initialized
INFO - 2015-09-04 17:58:20 --> Controller Class Initialized
INFO - 2015-09-04 17:58:20 --> Helper loaded: url_helper
INFO - 2015-09-04 17:58:20 --> File loaded: /opt/lampp/htdocs/project/application/views/home.php
INFO - 2015-09-04 17:58:20 --> File loaded: /opt/lampp/htdocs/project/application/views/themes/blank.php
INFO - 2015-09-04 17:58:20 --> Final output sent to browser
DEBUG - 2015-09-04 17:58:20 --> Total execution time: 0.0162
INFO - 2015-09-04 17:58:59 --> Config Class Initialized
INFO - 2015-09-04 17:58:59 --> Hooks Class Initialized
DEBUG - 2015-09-04 17:58:59 --> UTF-8 Support Enabled
INFO - 2015-09-04 17:58:59 --> Utf8 Class Initialized
INFO - 2015-09-04 17:58:59 --> URI Class Initialized
DEBUG - 2015-09-04 17:58:59 --> No URI present. Default controller set.
INFO - 2015-09-04 17:58:59 --> Router Class Initialized
INFO - 2015-09-04 17:58:59 --> Output Class Initialized
INFO - 2015-09-04 17:58:59 --> Security Class Initialized
DEBUG - 2015-09-04 17:58:59 --> Global POST, GET and COOKIE data sanitized
INFO - 2015-09-04 17:58:59 --> Input Class Initialized
INFO - 2015-09-04 17:58:59 --> Language Class Initialized
INFO - 2015-09-04 17:58:59 --> Loader Class Initialized
INFO - 2015-09-04 17:58:59 --> Controller Class Initialized
INFO - 2015-09-04 17:58:59 --> Helper loaded: url_helper
INFO - 2015-09-04 17:58:59 --> File loaded: /opt/lampp/htdocs/project/application/views/home.php
INFO - 2015-09-04 17:58:59 --> File loaded: /opt/lampp/htdocs/project/application/views/themes/blank.php
INFO - 2015-09-04 17:58:59 --> Final output sent to browser
DEBUG - 2015-09-04 17:58:59 --> Total execution time: 0.0122
INFO - 2015-09-04 17:59:51 --> Config Class Initialized
INFO - 2015-09-04 17:59:51 --> Hooks Class Initialized
DEBUG - 2015-09-04 17:59:51 --> UTF-8 Support Enabled
INFO - 2015-09-04 17:59:51 --> Utf8 Class Initialized
INFO - 2015-09-04 17:59:51 --> URI Class Initialized
DEBUG - 2015-09-04 17:59:51 --> No URI present. Default controller set.
INFO - 2015-09-04 17:59:51 --> Router Class Initialized
INFO - 2015-09-04 17:59:51 --> Output Class Initialized
INFO - 2015-09-04 17:59:51 --> Security Class Initialized
DEBUG - 2015-09-04 17:59:51 --> Global POST, GET and COOKIE data sanitized
INFO - 2015-09-04 17:59:51 --> Input Class Initialized
INFO - 2015-09-04 17:59:51 --> Language Class Initialized
INFO - 2015-09-04 17:59:51 --> Loader Class Initialized
INFO - 2015-09-04 17:59:51 --> Controller Class Initialized
INFO - 2015-09-04 17:59:51 --> Helper loaded: url_helper
INFO - 2015-09-04 17:59:51 --> File loaded: /opt/lampp/htdocs/project/application/views/home.php
INFO - 2015-09-04 17:59:51 --> File loaded: /opt/lampp/htdocs/project/application/views/themes/blank.php
INFO - 2015-09-04 17:59:51 --> Final output sent to browser
DEBUG - 2015-09-04 17:59:51 --> Total execution time: 0.0129
INFO - 2015-09-04 18:00:17 --> Config Class Initialized
INFO - 2015-09-04 18:00:17 --> Hooks Class Initialized
DEBUG - 2015-09-04 18:00:17 --> UTF-8 Support Enabled
INFO - 2015-09-04 18:00:17 --> Utf8 Class Initialized
INFO - 2015-09-04 18:00:17 --> URI Class Initialized
DEBUG - 2015-09-04 18:00:17 --> No URI present. Default controller set.
INFO - 2015-09-04 18:00:17 --> Router Class Initialized
INFO - 2015-09-04 18:00:17 --> Output Class Initialized
INFO - 2015-09-04 18:00:17 --> Security Class Initialized
DEBUG - 2015-09-04 18:00:17 --> Global POST, GET and COOKIE data sanitized
INFO - 2015-09-04 18:00:17 --> Input Class Initialized
INFO - 2015-09-04 18:00:17 --> Language Class Initialized
INFO - 2015-09-04 18:00:17 --> Loader Class Initialized
INFO - 2015-09-04 18:00:17 --> Controller Class Initialized
INFO - 2015-09-04 18:00:17 --> Helper loaded: url_helper
INFO - 2015-09-04 18:00:17 --> File loaded: /opt/lampp/htdocs/project/application/views/home.php
INFO - 2015-09-04 18:00:17 --> File loaded: /opt/lampp/htdocs/project/application/views/themes/blank.php
INFO - 2015-09-04 18:00:17 --> Final output sent to browser
DEBUG - 2015-09-04 18:00:17 --> Total execution time: 0.0177
